# 3ds Max Wavefront OBJ Exporter v0.97b - (c)2007 guruware
# File Created: 20.02.2018 21:04:57

mtllib Chair.mtl

#
# object Box005
#

v  -9.4547 21.0983 9.3451
v  -9.6422 21.0983 8.7722
v  -9.6422 21.0983 -11.9895
v  10.8615 21.0983 -11.9895
v  10.8615 21.0983 8.7875
v  10.7232 21.0983 9.4012
v  10.1438 21.0983 9.5583
v  -8.6841 21.0983 9.5583
v  -9.4547 22.2282 9.3451
v  -8.6841 22.2282 9.5583
v  10.1439 22.2282 9.5583
v  10.7232 22.2282 9.4012
v  10.8615 22.2282 8.7875
v  10.8615 22.2282 -11.9895
v  -9.6422 22.2282 -11.9895
v  -9.6422 22.2282 8.7722
v  -9.4499 0.9778 9.2544
v  -9.4499 0.9778 7.3250
v  -7.6075 0.9778 7.3250
v  -7.6075 0.9778 9.2544
v  -9.4499 22.1275 9.2544
v  -7.6075 22.1275 9.2544
v  -7.6075 22.1275 7.3250
v  -9.4499 22.1275 7.3250
v  8.6540 0.9778 9.2544
v  8.6540 0.9778 7.3250
v  10.4964 0.9778 7.3250
v  10.4964 0.9778 9.2544
v  8.6540 22.1275 9.2544
v  10.4964 22.1275 9.2544
v  10.4964 22.1275 7.3250
v  8.6540 22.1275 7.3250
v  -9.5374 0.9778 -9.9981
v  -9.5374 0.9778 -11.9276
v  -7.6951 0.9778 -11.9276
v  -7.6951 0.9778 -9.9981
v  -9.5374 52.0586 -13.3515
v  -7.6951 50.9897 -13.3515
v  -7.6951 49.6254 -14.7159
v  -9.5374 50.6943 -14.7159
v  -7.6951 22.1275 -9.9981
v  -9.5374 22.1275 -9.9981
v  -7.6951 22.1275 -11.9276
v  -9.5374 22.1275 -11.9276
v  8.6540 0.9778 -9.9981
v  8.6540 0.9778 -11.9276
v  10.4964 0.9778 -11.9276
v  10.4964 0.9778 -9.9981
v  8.6540 50.9887 -13.3505
v  10.4964 52.0576 -13.3505
v  10.4964 50.6932 -14.7148
v  8.6540 49.6243 -14.7148
v  10.4964 22.1275 -9.9981
v  8.6540 22.1275 -9.9981
v  10.4964 22.1275 -11.9276
v  8.6540 22.1275 -11.9276
v  -7.6951 48.7227 -10.2812
v  -9.5374 48.7227 -10.2812
v  -7.6951 47.3584 -11.6455
v  -9.5374 47.3584 -11.6455
v  10.4964 48.7217 -10.2801
v  8.6540 48.7217 -10.2801
v  10.4964 47.3573 -11.6445
v  8.6540 47.3573 -11.6445
v  8.7016 48.7227 -10.2812
v  8.7016 47.3584 -11.6455
v  8.7016 49.6254 -14.7159
v  8.7016 50.9897 -13.3515
v  -7.6951 40.4756 -10.4341
v  -7.6951 41.9510 -10.4341
v  -7.6951 41.9510 -11.7613
v  -7.6951 40.4756 -11.7613
v  8.8734 40.4756 -10.4341
v  8.8734 40.4756 -11.7613
v  8.8734 41.9510 -11.7613
v  8.8734 41.9510 -10.4341
v  -7.6951 37.3305 -10.4341
v  -7.6951 38.8060 -10.4341
v  -7.6951 38.8060 -11.7613
v  -7.6951 37.3305 -11.7613
v  8.8734 37.3305 -10.4341
v  8.8734 37.3305 -11.7613
v  8.8734 38.8060 -11.7613
v  8.8734 38.8060 -10.4341
v  -7.6951 33.8654 -10.4341
v  -7.6951 35.3408 -10.4341
v  -7.6951 35.3408 -11.7613
v  -7.6951 33.8654 -11.7613
v  8.8734 33.8654 -10.4341
v  8.8734 33.8654 -11.7613
v  8.8734 35.3408 -11.7613
v  8.8734 35.3408 -10.4341
# 92 vertices

vn -0.5447 -0.6146 0.5706
vn -0.7301 -0.6734 0.1164
vn -0.5774 -0.5774 -0.5774
vn 0.5774 -0.5774 -0.5774
vn 0.7259 -0.6830 0.0808
vn 0.5737 -0.6073 0.5495
vn 0.0970 -0.6786 0.7281
vn -0.0989 -0.6780 0.7283
vn -0.5447 0.6146 0.5706
vn -0.0989 0.6780 0.7283
vn 0.0970 0.6786 0.7281
vn 0.5737 0.6073 0.5495
vn 0.7259 0.6830 0.0808
vn 0.5774 0.5774 -0.5774
vn -0.5774 0.5774 -0.5774
vn -0.7301 0.6734 0.1164
vn -0.5774 -0.5774 0.5774
vn 0.5774 -0.5774 0.5774
vn -0.5774 0.5774 0.5774
vn 0.5774 0.5774 0.5774
vn -0.3806 0.9246 0.0158
vn 0.2907 0.9532 -0.0827
vn -0.0851 -0.1856 -0.9789
vn -0.5227 0.2041 -0.8277
vn 0.7059 0.0038 0.7083
vn -0.7059 0.0038 0.7083
vn 0.7059 0.0040 -0.7083
vn -0.7059 0.0040 -0.7083
vn -0.7755 0.6284 -0.0613
vn 0.3806 0.9246 0.0158
vn 0.5227 0.2041 -0.8277
vn -0.4990 -0.2641 -0.8254
vn 0.7058 0.0040 -0.7084
vn -0.7058 0.0040 -0.7084
vn 0.1647 0.2965 0.9407
vn -0.6347 0.2847 0.7184
vn 0.4820 -0.7371 -0.4736
vn -0.8003 -0.2148 -0.5599
vn 0.6347 0.2847 0.7185
vn -0.6192 0.3575 0.6991
vn 0.8003 -0.2148 -0.5599
vn -0.8253 -0.2516 -0.5055
vn 0.5699 0.0613 0.8194
vn 0.5856 -0.8083 0.0605
vn 0.5699 -0.0613 -0.8194
vn 0.5856 0.8083 -0.0605
# 46 vertex normals

vt 0.6323 0.3816 0.0000
vt 0.6289 0.3714 0.0000
vt 0.6289 0.0010 0.0000
vt 0.9947 0.0010 0.0000
vt 0.9947 0.3717 0.0000
vt 0.9923 0.3827 0.0000
vt 0.9819 0.3855 0.0000
vt 0.6460 0.3855 0.0000
vt 0.2610 0.0048 0.0000
vt 0.2748 0.0010 0.0000
vt 0.6107 0.0010 0.0000
vt 0.6210 0.0038 0.0000
vt 0.6235 0.0148 0.0000
vt 0.6235 0.3855 0.0000
vt 0.2577 0.3855 0.0000
vt 0.2577 0.0150 0.0000
vt 0.1935 0.4593 0.0000
vt 0.2073 0.4593 0.0000
vt 0.2073 0.4795 0.0000
vt 0.1935 0.4795 0.0000
vt 0.2668 0.3906 0.0000
vt 0.2778 0.3906 0.0000
vt 0.2778 0.4107 0.0000
vt 0.2668 0.4107 0.0000
vt 0.2668 0.4364 0.0000
vt 0.6327 0.4364 0.0000
vt 0.6327 0.4566 0.0000
vt 0.2668 0.4566 0.0000
vt 0.2668 0.4135 0.0000
vt 0.6373 0.4135 0.0000
vt 0.6373 0.4337 0.0000
vt 0.2668 0.4337 0.0000
vt 0.5432 0.4593 0.0000
vt 0.5432 0.4795 0.0000
vt 0.6475 0.4135 0.0000
vt 0.6475 0.4337 0.0000
vt 0.6485 0.3906 0.0000
vt 0.6485 0.4107 0.0000
vt 0.5535 0.4593 0.0000
vt 0.5535 0.4795 0.0000
vt 0.6152 0.4938 0.0000
vt 0.6152 0.4593 0.0000
vt 0.6480 0.4593 0.0000
vt 0.6480 0.4938 0.0000
vt 0.6152 0.4960 0.0000
vt 0.6480 0.4960 0.0000
vt 0.6480 0.5304 0.0000
vt 0.6152 0.5304 0.0000
vt 0.4410 0.6060 0.0000
vt 0.4739 0.6060 0.0000
vt 0.4739 0.9834 0.0000
vt 0.4410 0.9834 0.0000
vt 0.2210 0.6060 0.0000
vt 0.2554 0.6060 0.0000
vt 0.2554 0.9834 0.0000
vt 0.2210 0.9834 0.0000
vt 0.4043 0.6060 0.0000
vt 0.4372 0.6060 0.0000
vt 0.4372 0.9834 0.0000
vt 0.4043 0.9834 0.0000
vt 0.1843 0.6060 0.0000
vt 0.2188 0.6060 0.0000
vt 0.2188 0.9834 0.0000
vt 0.1843 0.9834 0.0000
vt 0.5648 0.5946 0.0000
vt 0.5648 0.5602 0.0000
vt 0.5976 0.5602 0.0000
vt 0.5976 0.5946 0.0000
vt 0.5281 0.5602 0.0000
vt 0.5610 0.5602 0.0000
vt 0.5610 0.5946 0.0000
vt 0.5281 0.5946 0.0000
vt 0.1477 0.6060 0.0000
vt 0.1805 0.6060 0.0000
vt 0.1805 0.9834 0.0000
vt 0.1477 0.9834 0.0000
vt 0.0377 0.6060 0.0000
vt 0.0721 0.6060 0.0000
vt 0.0721 0.9834 0.0000
vt 0.0377 0.9834 0.0000
vt 0.0743 0.6060 0.0000
vt 0.1072 0.6060 0.0000
vt 0.1072 0.9834 0.0000
vt 0.0743 0.9834 0.0000
vt 0.5510 0.6060 0.0000
vt 0.5854 0.6060 0.0000
vt 0.5854 0.9834 0.0000
vt 0.5510 0.9834 0.0000
vt 0.9589 0.4296 0.0000
vt 0.9589 0.3952 0.0000
vt 0.9918 0.3952 0.0000
vt 0.9918 0.4296 0.0000
vt 0.3640 0.5947 0.0000
vt 0.3356 0.5694 0.0000
vt 0.3478 0.5373 0.0000
vt 0.3762 0.5625 0.0000
vt 0.3677 0.6060 0.0000
vt 0.4005 0.6060 0.0000
vt 0.4005 0.9834 0.0000
vt 0.3677 0.9834 0.0000
vt 0.2577 0.6060 0.0000
vt 0.2921 0.6060 0.0000
vt 0.2921 0.9834 0.0000
vt 0.2577 0.9834 0.0000
vt 0.1110 0.6060 0.0000
vt 0.1439 0.6060 0.0000
vt 0.1439 0.9834 0.0000
vt 0.1110 0.9834 0.0000
vt 0.2943 0.6060 0.0000
vt 0.3288 0.6060 0.0000
vt 0.3288 0.9834 0.0000
vt 0.2943 0.9834 0.0000
vt 0.9635 0.7550 0.0000
vt 0.9635 0.7206 0.0000
vt 0.9964 0.7206 0.0000
vt 0.9964 0.7550 0.0000
vt 0.7933 0.9590 0.0000
vt 0.7649 0.9842 0.0000
vt 0.7527 0.9521 0.0000
vt 0.7811 0.9268 0.0000
vt 0.5877 0.6060 0.0000
vt 0.6205 0.6060 0.0000
vt 0.6205 0.9834 0.0000
vt 0.5877 0.9834 0.0000
vt 0.4777 0.6060 0.0000
vt 0.5121 0.6060 0.0000
vt 0.5121 0.9834 0.0000
vt 0.4777 0.9834 0.0000
vt 0.3310 0.6060 0.0000
vt 0.3639 0.6060 0.0000
vt 0.3639 0.9834 0.0000
vt 0.3310 0.9834 0.0000
vt 0.5143 0.6060 0.0000
vt 0.5488 0.6060 0.0000
vt 0.5488 0.9834 0.0000
vt 0.5143 0.9834 0.0000
vt 0.0010 0.0056 0.0000
vt 0.0339 0.0056 0.0000
vt 0.0339 0.4801 0.0000
vt 0.0010 0.4801 0.0000
vt 0.0010 0.4823 0.0000
vt 0.0354 0.4823 0.0000
vt 0.0304 0.9324 0.0000
vt 0.0061 0.9568 0.0000
vt 0.1843 0.0056 0.0000
vt 0.2172 0.0056 0.0000
vt 0.2172 0.4558 0.0000
vt 0.1843 0.4558 0.0000
vt 0.0377 0.0056 0.0000
vt 0.0721 0.0056 0.0000
vt 0.0670 0.4801 0.0000
vt 0.0427 0.4558 0.0000
vt 0.1477 0.0056 0.0000
vt 0.1805 0.0056 0.0000
vt 0.1805 0.4801 0.0000
vt 0.1477 0.4801 0.0000
vt 0.1110 0.0056 0.0000
vt 0.1454 0.0056 0.0000
vt 0.1404 0.4557 0.0000
vt 0.1160 0.4801 0.0000
vt 0.2210 0.0056 0.0000
vt 0.2539 0.0056 0.0000
vt 0.2539 0.4557 0.0000
vt 0.2210 0.4557 0.0000
vt 0.0743 0.0056 0.0000
vt 0.1088 0.0056 0.0000
vt 0.1037 0.4801 0.0000
vt 0.0794 0.4557 0.0000
vt 0.3814 0.5418 0.0000
vt 0.4143 0.5418 0.0000
vt 0.4143 0.5966 0.0000
vt 0.3814 0.5966 0.0000
vt 0.8993 0.9466 0.0000
vt 0.9237 0.9223 0.0000
vt 0.9785 0.9627 0.0000
vt 0.9541 0.9870 0.0000
vt 0.4510 0.5966 0.0000
vt 0.4181 0.5966 0.0000
vt 0.4181 0.5418 0.0000
vt 0.4510 0.5418 0.0000
vt 0.6791 0.8993 0.0000
vt 0.7035 0.9237 0.0000
vt 0.6487 0.9832 0.0000
vt 0.6243 0.9589 0.0000
vt 0.4914 0.5418 0.0000
vt 0.5243 0.5418 0.0000
vt 0.5243 0.5966 0.0000
vt 0.4914 0.5966 0.0000
vt 0.9039 0.8824 0.0000
vt 0.9283 0.8581 0.0000
vt 0.9830 0.9176 0.0000
vt 0.9587 0.9420 0.0000
vt 0.4876 0.5966 0.0000
vt 0.4548 0.5966 0.0000
vt 0.4548 0.5418 0.0000
vt 0.4876 0.5418 0.0000
vt 0.7341 0.9177 0.0000
vt 0.7585 0.9420 0.0000
vt 0.7037 0.9825 0.0000
vt 0.6793 0.9581 0.0000
vt 0.6931 0.7953 0.0000
vt 0.6931 0.7710 0.0000
vt 0.9856 0.7710 0.0000
vt 0.9856 0.7953 0.0000
vt 0.6931 0.8533 0.0000
vt 0.6931 0.7985 0.0000
vt 0.9856 0.7985 0.0000
vt 0.9856 0.8533 0.0000
vt 0.9581 0.6839 0.0000
vt 0.9581 0.7083 0.0000
vt 0.6656 0.7083 0.0000
vt 0.6656 0.6839 0.0000
vt 0.6656 0.7662 0.0000
vt 0.6656 0.7114 0.0000
vt 0.9581 0.7114 0.0000
vt 0.9581 0.7662 0.0000
vt 0.0888 0.4960 0.0000
vt 0.0888 0.5223 0.0000
vt 0.0652 0.5223 0.0000
vt 0.0652 0.4960 0.0000
vt 0.7206 0.9727 0.0000
vt 0.7443 0.9727 0.0000
vt 0.7443 0.9990 0.0000
vt 0.7206 0.9990 0.0000
vt 0.6610 0.5014 0.0000
vt 0.6610 0.4777 0.0000
vt 0.9566 0.4777 0.0000
vt 0.9566 0.5014 0.0000
vt 0.9566 0.4181 0.0000
vt 0.9566 0.4444 0.0000
vt 0.6610 0.4444 0.0000
vt 0.6610 0.4181 0.0000
vt 0.6610 0.4143 0.0000
vt 0.6610 0.3906 0.0000
vt 0.9566 0.3906 0.0000
vt 0.9566 0.4143 0.0000
vt 0.0377 0.5590 0.0000
vt 0.0377 0.5327 0.0000
vt 0.3333 0.5327 0.0000
vt 0.3333 0.5590 0.0000
vt 0.6480 0.5327 0.0000
vt 0.6480 0.5590 0.0000
vt 0.6243 0.5590 0.0000
vt 0.6243 0.5327 0.0000
vt 0.6610 0.9727 0.0000
vt 0.6847 0.9727 0.0000
vt 0.6847 0.9990 0.0000
vt 0.6610 0.9990 0.0000
vt 0.6610 0.6801 0.0000
vt 0.6610 0.6564 0.0000
vt 0.9566 0.6564 0.0000
vt 0.9566 0.6801 0.0000
vt 0.9566 0.6243 0.0000
vt 0.9566 0.6507 0.0000
vt 0.6610 0.6507 0.0000
vt 0.6610 0.6243 0.0000
vt 0.6610 0.5884 0.0000
vt 0.6610 0.5648 0.0000
vt 0.9566 0.5648 0.0000
vt 0.9566 0.5884 0.0000
vt 0.6610 0.5590 0.0000
vt 0.6610 0.5327 0.0000
vt 0.9566 0.5327 0.0000
vt 0.9566 0.5590 0.0000
vt 0.9780 0.8581 0.0000
vt 0.9780 0.8844 0.0000
vt 0.9543 0.8844 0.0000
vt 0.9543 0.8581 0.0000
vt 0.0377 0.4960 0.0000
vt 0.0613 0.4960 0.0000
vt 0.0613 0.5223 0.0000
vt 0.0377 0.5223 0.0000
vt 0.6610 0.5289 0.0000
vt 0.6610 0.5052 0.0000
vt 0.9566 0.5052 0.0000
vt 0.9566 0.5289 0.0000
vt 0.3333 0.5693 0.0000
vt 0.3333 0.5957 0.0000
vt 0.0377 0.5957 0.0000
vt 0.0377 0.5693 0.0000
vt 0.6610 0.4739 0.0000
vt 0.6610 0.4502 0.0000
vt 0.9566 0.4502 0.0000
vt 0.9566 0.4739 0.0000
vt 0.6610 0.6186 0.0000
vt 0.6610 0.5923 0.0000
vt 0.9566 0.5923 0.0000
vt 0.9566 0.6186 0.0000
# 288 texture coords

o Box005
g Box005
usemtl wire_229154215
s 2
f 1/1/1 2/2/2 3/3/3 4/4/4 5/5/5 6/6/6 7/7/7 8/8/8 
s 4
f 9/9/9 10/10/10 11/11/11 12/12/12 13/13/13 14/14/14 15/15/15 16/16/16 
s 8
f 1/17/1 8/18/8 10/19/10 9/20/9 
s 16
f 6/21/6 5/22/5 13/23/13 12/24/12 
s 32
f 4/25/4 3/26/3 15/27/15 14/28/14 
s 64
f 3/29/3 2/30/2 16/31/16 15/32/15 
s 8
f 8/18/8 7/33/7 11/34/11 10/19/10 
s 64
f 2/30/2 1/35/1 9/36/9 16/31/16 
s 16
f 5/22/5 4/37/4 14/38/14 13/23/13 
s 8
f 7/33/7 6/39/6 12/40/12 11/34/11 
s 2
f 17/41/17 18/42/3 19/43/4 20/44/18 
s 4
f 21/45/19 22/46/20 23/47/14 24/48/15 
s 8
f 17/49/17 20/50/18 22/51/20 21/52/19 
s 16
f 20/53/18 19/54/4 23/55/14 22/56/20 
s 32
f 19/57/4 18/58/3 24/59/15 23/60/14 
s 64
f 18/61/3 17/62/17 21/63/19 24/64/15 
s 2
f 25/65/17 26/66/3 27/67/4 28/68/18 
s 4
f 29/69/19 30/70/20 31/71/14 32/72/15 
s 8
f 25/73/17 28/74/18 30/75/20 29/76/19 
s 16
f 28/77/18 27/78/4 31/79/14 30/80/20 
s 32
f 27/81/4 26/82/3 32/83/15 31/84/14 
s 64
f 26/85/3 25/86/17 29/87/19 32/88/15 
s 2
f 33/89/17 34/90/3 35/91/4 36/92/18 
s 4
f 37/93/21 38/94/22 39/95/23 40/96/24 
s 8
f 33/97/17 36/98/18 41/99/25 42/100/26 
s 16
f 36/101/18 35/102/4 43/103/27 41/104/25 
s 32
f 35/105/4 34/106/3 44/107/28 43/108/27 
s 64
f 34/109/3 33/110/17 42/111/26 44/112/28 
s 2
f 45/113/17 46/114/3 47/115/4 48/116/18 
s 4
f 49/117/29 50/118/30 51/119/31 52/120/32 
s 8
f 45/121/17 48/122/18 53/123/25 54/124/26 
s 16
f 48/125/18 47/126/4 55/127/33 53/128/25 
s 32
f 47/129/4 46/130/3 56/131/34 55/132/33 
s 64
f 46/133/3 45/134/17 54/135/26 56/136/34 
s off
f 42/137/26 41/138/25 57/139/35 58/140/36 
f 41/141/25 43/142/27 59/143/37 57/144/35 
f 43/145/27 44/146/28 60/147/38 59/148/37 
f 44/149/28 42/150/26 58/151/36 60/152/38 
f 54/153/26 53/154/25 61/155/39 62/156/40 
f 53/157/25 55/158/33 63/159/41 61/160/39 
f 55/161/33 56/162/34 64/163/42 63/164/41 
f 56/165/34 54/166/26 62/167/40 64/168/42 
f 58/169/36 57/170/35 38/171/22 37/172/21 
f 65/173/43 66/174/44 67/175/45 68/176/46 
f 59/177/37 60/178/38 40/179/24 39/180/23 
f 60/181/38 58/182/36 37/183/21 40/184/24 
f 62/185/40 61/186/39 50/187/30 49/188/29 
f 61/189/39 63/190/41 51/191/31 50/192/30 
f 63/193/41 64/194/42 52/195/32 51/196/31 
f 64/197/42 62/198/40 49/199/29 52/200/32 
f 57/201/35 59/202/37 66/203/44 65/204/43 
f 59/205/37 39/206/23 67/207/45 66/208/44 
f 39/209/23 38/210/22 68/211/46 67/212/45 
f 38/213/22 57/214/35 65/215/43 68/216/46 
s 2
f 69/217/17 70/218/19 71/219/15 72/220/3 
s 4
f 73/221/18 74/222/4 75/223/14 76/224/20 
s 8
f 69/225/17 72/226/3 74/227/4 73/228/18 
s 16
f 72/229/3 71/230/15 75/231/14 74/232/4 
s 32
f 71/233/15 70/234/19 76/235/20 75/236/14 
s 64
f 70/237/19 69/238/17 73/239/18 76/240/20 
s 2
f 77/241/17 78/242/19 79/243/15 80/244/3 
s 4
f 81/245/18 82/246/4 83/247/14 84/248/20 
s 8
f 77/249/17 80/250/3 82/251/4 81/252/18 
s 16
f 80/253/3 79/254/15 83/255/14 82/256/4 
s 32
f 79/257/15 78/258/19 84/259/20 83/260/14 
s 64
f 78/261/19 77/262/17 81/263/18 84/264/20 
s 2
f 85/265/17 86/266/19 87/267/15 88/268/3 
s 4
f 89/269/18 90/270/4 91/271/14 92/272/20 
s 8
f 85/273/17 88/274/3 90/275/4 89/276/18 
s 16
f 88/277/3 87/278/15 91/279/14 90/280/4 
s 32
f 87/281/15 86/282/19 92/283/20 91/284/14 
s 64
f 86/285/19 85/286/17 89/287/18 92/288/20 
# 72 polygons

