# 3ds Max Wavefront OBJ Exporter v0.97b - (c)2007 guruware
# File Created: 20.02.2018 21:07:39

mtllib Drawer.mtl

#
# object drawer_003
#

v  -18.4421 33.1699 27.4749
v  -18.4421 62.5499 27.4749
v  -18.4421 62.5499 -12.2399
v  -18.4421 33.1699 -12.2399
v  23.2546 33.1699 27.4749
v  23.2546 33.1699 -12.2399
v  23.2546 62.5499 -12.2399
v  23.2546 62.5499 27.4749
v  -17.4884 35.2297 -11.2861
v  -17.4884 35.2297 26.5212
v  22.3009 35.2296 26.5212
v  22.3009 35.2296 -11.2861
v  -6.1844 59.4204 26.8005
v  -6.1844 55.1924 26.8005
v  10.9969 55.1924 26.8005
v  10.9969 59.4203 26.8005
v  -17.4884 62.5499 26.5212
v  -17.4884 62.5499 -11.2861
v  22.3009 62.5499 26.5212
v  22.3009 62.5499 -11.2861
v  -18.4421 62.5499 28.4859
v  -18.4421 33.1699 28.4859
v  -6.1844 55.1924 28.4859
v  -6.1844 59.4204 28.4859
v  10.9969 55.1924 27.4749
v  -6.1844 55.1924 27.4749
v  23.2546 33.1699 28.4859
v  23.2546 62.5499 28.4859
v  10.9969 59.4203 28.4859
v  10.9969 55.1924 28.4859
v  -6.1844 59.4204 27.4749
v  10.9969 59.4203 27.4749
v  -18.4421 4.2503 36.3465
v  -18.4421 30.7569 36.3465
v  -18.4421 30.7569 -3.3683
v  -18.4421 4.2503 -3.3683
v  23.2546 4.2503 36.3465
v  23.2546 4.2503 -3.3683
v  23.2546 30.7569 -3.3683
v  23.2546 30.7569 36.3465
v  -17.4884 6.3101 -2.4145
v  -17.4884 6.3101 35.3927
v  22.3009 6.3101 35.3928
v  22.3009 6.3101 -2.4145
v  -6.1844 27.6273 35.6721
v  -6.1844 23.3994 35.6721
v  10.9969 23.3994 35.6721
v  10.9969 27.6273 35.6721
v  -17.4884 30.7569 35.3927
v  -17.4884 30.7569 -2.4145
v  22.3009 30.7569 35.3928
v  22.3009 30.7569 -2.4145
v  -18.4421 30.7569 37.3575
v  -18.4421 4.2503 37.3575
v  -6.1844 23.3994 37.3575
v  -6.1844 27.6273 37.3575
v  10.9969 23.3994 36.3465
v  -6.1844 23.3994 36.3465
v  23.2546 4.2503 37.3574
v  23.2546 30.7569 37.3574
v  10.9969 27.6273 37.3574
v  10.9969 23.3994 37.3574
v  -6.1844 27.6273 36.3465
v  10.9969 27.6273 36.3465
v  -21.1608 1.2587 7.8320
v  -21.1608 1.2587 -37.5474
v  26.3034 1.2587 -37.5474
v  26.3034 1.2587 7.8320
v  -20.0293 122.8585 7.8320
v  -20.0293 122.8585 -37.5474
v  -21.7149 122.4173 -37.5474
v  -21.7149 122.4173 7.8320
v  -18.4421 3.9774 -34.6410
v  23.5847 3.9774 -34.6410
v  23.5848 119.6986 -34.6410
v  -18.4421 119.6986 -34.6410
v  28.0026 119.3548 -37.5474
v  28.0026 119.3548 7.8320
v  26.0620 122.6405 -37.5474
v  27.7234 121.9555 -37.5474
v  -22.4061 121.3886 -37.5474
v  -22.4061 121.3886 7.8320
v  23.5847 3.9774 7.8320
v  -18.4421 3.9774 7.8320
v  27.7234 121.9555 7.8320
v  23.5848 119.6986 7.8320
v  -18.4421 119.6986 7.8320
v  26.0620 122.6405 7.8320
v  -18.4421 97.1054 7.1529
v  -18.4421 98.9583 7.1529
v  -18.4421 98.9583 -33.7509
v  -18.4421 97.1054 -33.7509
v  23.9771 97.1054 7.1529
v  23.9771 97.1054 -33.7509
v  23.9771 98.9583 -33.7509
v  23.9771 98.9583 7.1529
v  -18.4421 63.1144 7.1529
v  -18.4421 64.9674 7.1529
v  -18.4421 64.9674 -33.7509
v  -18.4421 63.1144 -33.7509
v  23.9771 63.1144 7.1529
v  23.9771 63.1144 -33.7509
v  23.9771 64.9674 -33.7509
v  23.9771 64.9674 7.1529
v  -18.4421 31.2690 7.1529
v  -18.4421 33.1219 7.1529
v  -18.4421 33.1219 -33.7509
v  -18.4421 31.2690 -33.7509
v  23.9771 31.2690 7.1529
v  23.9772 31.2690 -33.7509
v  23.9772 33.1219 -33.7509
v  23.9771 33.1219 7.1529
v  -18.4421 99.0902 16.1358
v  -18.4421 119.3858 16.1358
v  -18.4421 119.3858 -23.5791
v  -18.4421 99.0902 -23.5791
v  23.2546 99.0902 16.1358
v  23.2546 99.0902 -23.5791
v  23.2546 119.3858 -23.5791
v  23.2546 119.3858 16.1358
v  -17.4884 101.1500 -22.6253
v  -17.4884 101.1500 15.1820
v  22.3009 101.1500 15.1820
v  22.3009 101.1500 -22.6253
v  -6.1844 116.2563 15.4613
v  -6.1844 112.0283 15.4613
v  10.9969 112.0283 15.4613
v  10.9969 116.2563 15.4613
v  -17.4884 119.3858 15.1820
v  -17.4884 119.3858 -22.6253
v  22.3009 119.3858 15.1820
v  22.3009 119.3858 -22.6253
v  -18.4421 119.3858 17.1474
v  -18.4421 99.0902 17.1474
v  -6.1844 112.0283 17.1474
v  -6.1844 116.2563 17.1474
v  10.9969 112.0283 16.1358
v  -6.1844 112.0283 16.1358
v  23.2546 99.0902 17.1474
v  23.2546 119.3858 17.1474
v  10.9969 116.2563 17.1474
v  10.9969 112.0283 17.1474
v  -6.1844 116.2563 16.1358
v  10.9969 116.2563 16.1358
v  -18.4421 65.2372 20.5072
v  -18.4421 96.8286 20.5072
v  -18.4421 96.8286 -19.2076
v  -18.4421 65.2372 -19.2076
v  23.2546 65.2372 20.5072
v  23.2546 65.2372 -19.2076
v  23.2546 96.8286 -19.2076
v  23.2546 96.8286 20.5072
v  -17.4884 67.2970 -18.2538
v  -17.4884 67.2970 19.5535
v  22.3009 67.2970 19.5535
v  22.3009 67.2970 -18.2538
v  -6.1844 93.6991 19.8328
v  -6.1844 89.4711 19.8328
v  10.9969 89.4711 19.8328
v  10.9969 93.6990 19.8328
v  -17.4884 96.8286 19.5535
v  -17.4884 96.8286 -18.2538
v  22.3009 96.8286 19.5535
v  22.3009 96.8286 -18.2538
v  -18.4421 96.8286 21.5182
v  -18.4421 65.2372 21.5182
v  -6.1844 89.4711 21.5182
v  -6.1844 93.6991 21.5182
v  10.9969 89.4711 20.5072
v  -6.1844 89.4711 20.5072
v  23.2546 65.2372 21.5182
v  23.2546 96.8286 21.5182
v  10.9969 93.6990 21.5182
v  10.9969 89.4711 21.5182
v  -6.1844 93.6991 20.5073
v  10.9969 93.6990 20.5072
# 176 vertices

vn -0.0000 -1.0000 0.0000
vn -0.0000 -1.0000 -0.0000
vn 0.0000 1.0000 -0.0000
vn -0.0000 -0.0000 1.0000
vn 0.0000 -0.0000 1.0000
vn 1.0000 -0.0000 -0.0000
vn -0.0000 0.0000 -1.0000
vn -1.0000 0.0000 0.0000
vn -1.0000 0.0000 -0.0000
vn 0.0000 -0.0000 -1.0000
vn 0.0000 0.0000 -1.0000
vn 0.0000 1.0000 0.0000
vn -0.0000 1.0000 -0.0000
vn 1.0000 0.0000 -0.0000
vn 0.0000 -1.0000 0.0000
vn 0.0000 -1.0000 -0.0000
vn -1.0000 -0.0000 0.0000
vn 0.0000 0.8738 0.4863
vn -0.0000 0.8738 0.4863
vn -0.0000 0.2474 -0.9689
vn 0.0000 0.2474 -0.9689
vn 0.0000 -0.2474 -0.9689
vn 0.0000 -0.8738 0.4863
vn 0.0000 0.0000 1.0000
vn -0.0000 -0.0000 -1.0000
vn 1.0000 0.0000 0.0000
vn -1.0000 -0.0000 -0.0000
vn 0.0000 0.8422 0.5391
vn -0.0000 0.8422 0.5391
vn 0.0000 -0.8422 0.5391
vn 0.0000 -0.1253 -0.9921
vn 0.0000 -0.2532 -0.9674
vn -0.0000 0.9999 0.0144
vn 0.0000 0.9989 -0.0463
vn -0.0000 0.9989 -0.0463
vn 0.0000 -0.9999 0.0104
vn 0.0000 -0.9581 -0.2866
vn 0.0000 0.9943 -0.1068
vn 0.0000 0.3812 -0.9245
vn 0.0000 0.1966 -0.9805
vn -0.0000 0.1966 -0.9805
vn 0.0000 -0.8300 -0.5577
vn 0.0000 0.7259 0.6878
vn -0.0000 -0.2474 -0.9689
vn 0.0000 -0.7259 0.6878
vn 0.0000 0.8923 0.4514
vn -0.0000 0.8923 0.4514
vn 0.0000 -0.8923 0.4514
# 48 vertex normals

vt 0.3827 0.9053 0.0000
vt 0.3827 0.9867 0.0000
vt 0.2728 0.9867 0.0000
vt 0.2728 0.9053 0.0000
vt 0.2709 0.8210 0.0000
vt 0.3808 0.8210 0.0000
vt 0.3808 0.9023 0.0000
vt 0.2709 0.9023 0.0000
vt 0.3780 0.8099 0.0000
vt 0.2681 0.8099 0.0000
vt 0.2681 0.6945 0.0000
vt 0.3780 0.6945 0.0000
vt 0.3882 0.5914 0.0000
vt 0.3882 0.6727 0.0000
vt 0.2728 0.6727 0.0000
vt 0.2728 0.5914 0.0000
vt 0.8491 0.8772 0.0000
vt 0.9537 0.8772 0.0000
vt 0.9537 0.9873 0.0000
vt 0.8491 0.9873 0.0000
vt 0.9709 0.8116 0.0000
vt 0.9826 0.8116 0.0000
vt 0.9826 0.8592 0.0000
vt 0.9709 0.8592 0.0000
vt 0.2617 0.5914 0.0000
vt 0.2617 0.7013 0.0000
vt 0.2590 0.6987 0.0000
vt 0.2590 0.5940 0.0000
vt 0.1463 0.7013 0.0000
vt 0.1489 0.6987 0.0000
vt 0.1463 0.5914 0.0000
vt 0.1489 0.5940 0.0000
vt 0.9100 0.4617 0.0000
vt 0.9100 0.3571 0.0000
vt 0.9856 0.3571 0.0000
vt 0.9856 0.4617 0.0000
vt 0.8404 0.6336 0.0000
vt 0.8404 0.7437 0.0000
vt 0.7648 0.7437 0.0000
vt 0.7648 0.6336 0.0000
vt 0.7991 0.6202 0.0000
vt 0.6945 0.6202 0.0000
vt 0.6945 0.5445 0.0000
vt 0.7991 0.5445 0.0000
vt 0.7132 0.9873 0.0000
vt 0.7132 0.8772 0.0000
vt 0.7888 0.8772 0.0000
vt 0.7888 0.9873 0.0000
vt 0.9908 0.8725 0.0000
vt 0.9908 0.9539 0.0000
vt 0.9569 0.8929 0.0000
vt 0.9569 0.8812 0.0000
vt 0.3805 0.7179 0.0000
vt 0.4959 0.7179 0.0000
vt 0.4620 0.7789 0.0000
vt 0.4145 0.7789 0.0000
vt 0.8023 0.3571 0.0000
vt 0.8836 0.3571 0.0000
vt 0.8749 0.3910 0.0000
vt 0.8632 0.3910 0.0000
vt 0.5117 0.5287 0.0000
vt 0.5117 0.4133 0.0000
vt 0.5204 0.4473 0.0000
vt 0.5204 0.4948 0.0000
vt 0.6429 0.5239 0.0000
vt 0.6546 0.5239 0.0000
vt 0.6546 0.5258 0.0000
vt 0.6429 0.5258 0.0000
vt 0.4883 0.7842 0.0000
vt 0.4883 0.7367 0.0000
vt 0.4902 0.7367 0.0000
vt 0.4902 0.7842 0.0000
vt 0.9269 0.2657 0.0000
vt 0.9269 0.2540 0.0000
vt 0.9288 0.2540 0.0000
vt 0.9288 0.2657 0.0000
vt 0.4087 0.7929 0.0000
vt 0.4562 0.7929 0.0000
vt 0.4562 0.7948 0.0000
vt 0.4087 0.7948 0.0000
vt 0.3855 0.9053 0.0000
vt 0.3855 0.9867 0.0000
vt 0.7156 0.5239 0.0000
vt 0.6546 0.5211 0.0000
vt 0.7156 0.5211 0.0000
vt 0.6429 0.5211 0.0000
vt 0.2728 0.9944 0.0000
vt 0.3067 0.9944 0.0000
vt 0.3067 0.9972 0.0000
vt 0.2728 0.9972 0.0000
vt 0.2681 0.9023 0.0000
vt 0.2681 0.8210 0.0000
vt 0.4743 0.7951 0.0000
vt 0.4743 0.7601 0.0000
vt 0.4771 0.7601 0.0000
vt 0.4771 0.7951 0.0000
vt 0.9241 0.2657 0.0000
vt 0.9241 0.2540 0.0000
vt 0.9269 0.3267 0.0000
vt 0.9241 0.3267 0.0000
vt 0.5071 0.8753 0.0000
vt 0.5804 0.8753 0.0000
vt 0.5804 0.9853 0.0000
vt 0.5071 0.9853 0.0000
vt 0.1491 0.9100 0.0000
vt 0.2590 0.9100 0.0000
vt 0.2590 0.9834 0.0000
vt 0.1491 0.9834 0.0000
vt 0.6404 0.5194 0.0000
vt 0.5305 0.5194 0.0000
vt 0.5305 0.4040 0.0000
vt 0.6404 0.4040 0.0000
vt 0.6429 0.3946 0.0000
vt 0.7163 0.3946 0.0000
vt 0.7163 0.5100 0.0000
vt 0.6429 0.5100 0.0000
vt 0.5024 0.7507 0.0000
vt 0.6070 0.7507 0.0000
vt 0.6070 0.8608 0.0000
vt 0.5024 0.8608 0.0000
vt 0.7514 0.5258 0.0000
vt 0.7514 0.5375 0.0000
vt 0.7039 0.5375 0.0000
vt 0.7039 0.5258 0.0000
vt 0.5258 0.5305 0.0000
vt 0.6357 0.5305 0.0000
vt 0.6331 0.5331 0.0000
vt 0.5284 0.5331 0.0000
vt 0.6357 0.6459 0.0000
vt 0.6331 0.6432 0.0000
vt 0.5258 0.6459 0.0000
vt 0.5284 0.6432 0.0000
vt 0.9194 0.5695 0.0000
vt 0.9194 0.4649 0.0000
vt 0.9871 0.4649 0.0000
vt 0.9871 0.5695 0.0000
vt 0.9543 0.7554 0.0000
vt 0.9543 0.8655 0.0000
vt 0.8866 0.8655 0.0000
vt 0.8866 0.7554 0.0000
vt 0.9121 0.6383 0.0000
vt 0.9121 0.7429 0.0000
vt 0.8444 0.7429 0.0000
vt 0.8444 0.6383 0.0000
vt 0.6429 0.9873 0.0000
vt 0.6429 0.8772 0.0000
vt 0.7106 0.8772 0.0000
vt 0.7106 0.9873 0.0000
vt 0.9147 0.6992 0.0000
vt 0.9881 0.6992 0.0000
vt 0.9351 0.7331 0.0000
vt 0.9234 0.7331 0.0000
vt 0.6383 0.6459 0.0000
vt 0.6383 0.5305 0.0000
vt 0.6913 0.5644 0.0000
vt 0.6913 0.6120 0.0000
vt 0.8444 0.4633 0.0000
vt 0.8444 0.3899 0.0000
vt 0.8784 0.3986 0.0000
vt 0.8784 0.4103 0.0000
vt 0.2728 0.6757 0.0000
vt 0.3882 0.6757 0.0000
vt 0.3542 0.6844 0.0000
vt 0.3067 0.6844 0.0000
vt 0.5211 0.7441 0.0000
vt 0.5328 0.7441 0.0000
vt 0.5328 0.7460 0.0000
vt 0.5211 0.7460 0.0000
vt 0.9962 0.9241 0.0000
vt 0.9962 0.9716 0.0000
vt 0.9944 0.9716 0.0000
vt 0.9944 0.9241 0.0000
vt 0.9634 0.8506 0.0000
vt 0.9634 0.8623 0.0000
vt 0.9616 0.8623 0.0000
vt 0.9616 0.8506 0.0000
vt 0.4087 0.7835 0.0000
vt 0.4562 0.7835 0.0000
vt 0.4562 0.7854 0.0000
vt 0.4087 0.7854 0.0000
vt 0.5071 0.8725 0.0000
vt 0.5804 0.8725 0.0000
vt 0.5858 0.7441 0.0000
vt 0.5328 0.7413 0.0000
vt 0.5858 0.7413 0.0000
vt 0.5211 0.7413 0.0000
vt 0.2259 0.9944 0.0000
vt 0.2609 0.9944 0.0000
vt 0.2609 0.9972 0.0000
vt 0.2259 0.9972 0.0000
vt 0.1463 0.9834 0.0000
vt 0.1463 0.9100 0.0000
vt 0.5961 0.7413 0.0000
vt 0.6311 0.7413 0.0000
vt 0.6311 0.7441 0.0000
vt 0.5961 0.7441 0.0000
vt 0.9662 0.8506 0.0000
vt 0.9662 0.8623 0.0000
vt 0.9634 0.7976 0.0000
vt 0.9662 0.7976 0.0000
vt 0.8165 0.0010 0.0000
vt 0.8165 0.1266 0.0000
vt 0.6851 0.1266 0.0000
vt 0.6851 0.0010 0.0000
vt 0.1266 0.8323 0.0000
vt 0.0010 0.8323 0.0000
vt 0.0010 0.8276 0.0000
vt 0.1266 0.8276 0.0000
vt 0.3899 0.1369 0.0000
vt 0.5062 0.1369 0.0000
vt 0.5062 0.4571 0.0000
vt 0.3899 0.4571 0.0000
vt 0.1266 0.4883 0.0000
vt 0.1266 0.8151 0.0000
vt 0.0010 0.8151 0.0000
vt 0.0010 0.4883 0.0000
vt 0.1351 0.1469 0.0000
vt 0.1397 0.1488 0.0000
vt 0.1405 0.1560 0.0000
vt 0.1358 0.4828 0.0000
vt 0.0044 0.4828 0.0000
vt 0.0010 0.1503 0.0000
vt 0.0029 0.1475 0.0000
vt 0.0076 0.1463 0.0000
vt 0.3477 0.0010 0.0000
vt 0.6802 0.0010 0.0000
vt 0.6802 0.1266 0.0000
vt 0.3477 0.1266 0.0000
vt 0.3422 0.0044 0.0000
vt 0.3422 0.1358 0.0000
vt 0.3347 0.1283 0.0000
vt 0.3347 0.0120 0.0000
vt 0.0154 0.1405 0.0000
vt 0.0082 0.1397 0.0000
vt 0.0144 0.1283 0.0000
vt 0.0069 0.0029 0.0000
vt 0.0144 0.0120 0.0000
vt 0.0063 0.1351 0.0000
vt 0.0057 0.0076 0.0000
vt 0.0098 0.0010 0.0000
vt 0.9385 0.0010 0.0000
vt 0.9385 0.1173 0.0000
vt 0.8210 0.1173 0.0000
vt 0.8210 0.0010 0.0000
vt 0.1463 0.4618 0.0000
vt 0.1463 0.1416 0.0000
vt 0.2638 0.1416 0.0000
vt 0.2638 0.4618 0.0000
vt 0.5117 0.1369 0.0000
vt 0.6281 0.1369 0.0000
vt 0.6281 0.2544 0.0000
vt 0.5117 0.2544 0.0000
vt 0.2681 0.4618 0.0000
vt 0.2681 0.1416 0.0000
vt 0.3856 0.1416 0.0000
vt 0.3856 0.4618 0.0000
vt 0.5211 0.6668 0.0000
vt 0.5211 0.6617 0.0000
vt 0.6343 0.6617 0.0000
vt 0.6343 0.6668 0.0000
vt 0.5211 0.6523 0.0000
vt 0.6343 0.6523 0.0000
vt 0.6343 0.6574 0.0000
vt 0.5211 0.6574 0.0000
vt 0.7650 0.2587 0.0000
vt 0.7650 0.3719 0.0000
vt 0.6476 0.3719 0.0000
vt 0.6476 0.2587 0.0000
vt 0.3949 0.4649 0.0000
vt 0.3949 0.4700 0.0000
vt 0.2775 0.4700 0.0000
vt 0.2775 0.4649 0.0000
vt 0.1463 0.5875 0.0000
vt 0.1463 0.4743 0.0000
vt 0.2637 0.4743 0.0000
vt 0.2637 0.5875 0.0000
vt 0.7650 0.3759 0.0000
vt 0.7650 0.3810 0.0000
vt 0.6476 0.3810 0.0000
vt 0.6476 0.3759 0.0000
vt 0.0010 0.9948 0.0000
vt 0.0010 0.9897 0.0000
vt 0.1142 0.9897 0.0000
vt 0.1142 0.9948 0.0000
vt 0.5211 0.6711 0.0000
vt 0.6343 0.6711 0.0000
vt 0.6343 0.6762 0.0000
vt 0.5211 0.6762 0.0000
vt 0.3949 0.4743 0.0000
vt 0.3949 0.5875 0.0000
vt 0.2775 0.5875 0.0000
vt 0.2775 0.4743 0.0000
vt 0.6338 0.3759 0.0000
vt 0.6338 0.3810 0.0000
vt 0.5164 0.3810 0.0000
vt 0.5164 0.3759 0.0000
vt 0.8639 0.2543 0.0000
vt 0.7507 0.2543 0.0000
vt 0.7507 0.1369 0.0000
vt 0.8639 0.1369 0.0000
vt 0.2637 0.4649 0.0000
vt 0.2637 0.4700 0.0000
vt 0.1463 0.4700 0.0000
vt 0.1463 0.4649 0.0000
vt 0.0010 0.9854 0.0000
vt 0.0010 0.9803 0.0000
vt 0.1142 0.9803 0.0000
vt 0.1142 0.9854 0.0000
vt 0.0010 0.9709 0.0000
vt 0.1142 0.9709 0.0000
vt 0.1142 0.9761 0.0000
vt 0.0010 0.9761 0.0000
vt 0.6338 0.2587 0.0000
vt 0.6338 0.3719 0.0000
vt 0.5164 0.3719 0.0000
vt 0.5164 0.2587 0.0000
vt 0.6338 0.3946 0.0000
vt 0.6338 0.3997 0.0000
vt 0.5164 0.3997 0.0000
vt 0.5164 0.3946 0.0000
vt 0.6336 0.1369 0.0000
vt 0.7468 0.1369 0.0000
vt 0.7468 0.2543 0.0000
vt 0.6336 0.2543 0.0000
vt 0.6338 0.3852 0.0000
vt 0.6338 0.3904 0.0000
vt 0.5164 0.3904 0.0000
vt 0.5164 0.3852 0.0000
vt 0.1266 0.8223 0.0000
vt 0.0010 0.8223 0.0000
vt 0.1266 0.9644 0.0000
vt 0.0010 0.9644 0.0000
vt 0.0010 0.9598 0.0000
vt 0.1266 0.9598 0.0000
vt 0.0010 0.8257 0.0000
vt 0.1266 0.8257 0.0000
vt 0.6310 0.6804 0.0000
vt 0.6310 0.7366 0.0000
vt 0.5211 0.7366 0.0000
vt 0.5211 0.6804 0.0000
vt 0.7226 0.5045 0.0000
vt 0.7226 0.3946 0.0000
vt 0.7788 0.3946 0.0000
vt 0.7788 0.5045 0.0000
vt 0.3993 0.4696 0.0000
vt 0.5092 0.4696 0.0000
vt 0.5092 0.5850 0.0000
vt 0.3993 0.5850 0.0000
vt 0.9428 0.0010 0.0000
vt 0.9990 0.0010 0.0000
vt 0.9990 0.1164 0.0000
vt 0.9428 0.1164 0.0000
vt 0.6101 0.7554 0.0000
vt 0.7148 0.7554 0.0000
vt 0.7148 0.8655 0.0000
vt 0.6101 0.8655 0.0000
vt 0.9850 0.8116 0.0000
vt 0.9967 0.8116 0.0000
vt 0.9967 0.8592 0.0000
vt 0.9850 0.8592 0.0000
vt 0.3993 0.5914 0.0000
vt 0.5092 0.5914 0.0000
vt 0.5066 0.5940 0.0000
vt 0.4019 0.5940 0.0000
vt 0.5092 0.7068 0.0000
vt 0.5066 0.7042 0.0000
vt 0.3993 0.7068 0.0000
vt 0.4019 0.7042 0.0000
vt 0.7835 0.4805 0.0000
vt 0.7835 0.3759 0.0000
vt 0.8340 0.3759 0.0000
vt 0.8340 0.4805 0.0000
vt 0.6372 0.8772 0.0000
vt 0.6372 0.9873 0.0000
vt 0.5867 0.9873 0.0000
vt 0.5867 0.8772 0.0000
vt 0.9886 0.2493 0.0000
vt 0.9886 0.3540 0.0000
vt 0.9381 0.3540 0.0000
vt 0.9381 0.2493 0.0000
vt 0.7929 0.9873 0.0000
vt 0.7929 0.8772 0.0000
vt 0.8434 0.8772 0.0000
vt 0.8434 0.9873 0.0000
vt 0.7882 0.4836 0.0000
vt 0.8444 0.4836 0.0000
vt 0.8086 0.5176 0.0000
vt 0.7969 0.5176 0.0000
vt 0.7695 0.3835 0.0000
vt 0.7695 0.2681 0.0000
vt 0.8053 0.3020 0.0000
vt 0.8053 0.3496 0.0000
vt 0.8830 0.4274 0.0000
vt 0.8830 0.4836 0.0000
vt 0.8491 0.4749 0.0000
vt 0.8491 0.4632 0.0000
vt 0.9803 0.2429 0.0000
vt 0.9803 0.1275 0.0000
vt 0.9890 0.1614 0.0000
vt 0.9890 0.2090 0.0000
vt 0.2072 0.9925 0.0000
vt 0.2189 0.9925 0.0000
vt 0.2189 0.9944 0.0000
vt 0.2072 0.9944 0.0000
vt 0.1938 0.9916 0.0000
vt 0.1463 0.9916 0.0000
vt 0.1463 0.9897 0.0000
vt 0.1938 0.9897 0.0000
vt 0.8838 0.4023 0.0000
vt 0.8838 0.4140 0.0000
vt 0.8819 0.4140 0.0000
vt 0.8819 0.4023 0.0000
vt 0.1463 0.9944 0.0000
vt 0.1938 0.9944 0.0000
vt 0.1938 0.9962 0.0000
vt 0.1463 0.9962 0.0000
vt 0.6338 0.6804 0.0000
vt 0.6338 0.7366 0.0000
vt 0.2547 0.9925 0.0000
vt 0.2189 0.9897 0.0000
vt 0.2547 0.9897 0.0000
vt 0.2072 0.9897 0.0000
vt 0.9944 0.9076 0.0000
vt 0.9944 0.8725 0.0000
vt 0.9972 0.8725 0.0000
vt 0.9972 0.9076 0.0000
vt 0.7788 0.5073 0.0000
vt 0.7226 0.5073 0.0000
vt 0.5071 0.7482 0.0000
vt 0.5071 0.7132 0.0000
vt 0.5099 0.7132 0.0000
vt 0.5099 0.7482 0.0000
vt 0.8866 0.4023 0.0000
vt 0.8866 0.4140 0.0000
vt 0.8838 0.3665 0.0000
vt 0.8866 0.3665 0.0000
vt 0.4951 0.8023 0.0000
vt 0.4951 0.8897 0.0000
vt 0.3852 0.8897 0.0000
vt 0.3852 0.8023 0.0000
vt 0.4998 0.9881 0.0000
vt 0.3899 0.9881 0.0000
vt 0.3899 0.9007 0.0000
vt 0.4998 0.9007 0.0000
vt 0.1463 0.8138 0.0000
vt 0.1463 0.7039 0.0000
vt 0.2617 0.7039 0.0000
vt 0.2617 0.8138 0.0000
vt 0.2617 0.8163 0.0000
vt 0.2617 0.9037 0.0000
vt 0.1463 0.9037 0.0000
vt 0.1463 0.8163 0.0000
vt 0.6523 0.7429 0.0000
vt 0.6523 0.6383 0.0000
vt 0.7624 0.6383 0.0000
vt 0.7624 0.7429 0.0000
vt 0.7748 0.5117 0.0000
vt 0.7748 0.5234 0.0000
vt 0.7273 0.5234 0.0000
vt 0.7273 0.5117 0.0000
vt 0.8679 0.1275 0.0000
vt 0.9778 0.1275 0.0000
vt 0.9751 0.1302 0.0000
vt 0.8705 0.1302 0.0000
vt 0.9778 0.2429 0.0000
vt 0.9751 0.2403 0.0000
vt 0.8679 0.2429 0.0000
vt 0.8705 0.2403 0.0000
vt 0.9147 0.6867 0.0000
vt 0.9147 0.5820 0.0000
vt 0.9964 0.5820 0.0000
vt 0.9964 0.6867 0.0000
vt 0.8023 0.8655 0.0000
vt 0.8023 0.7554 0.0000
vt 0.8840 0.7554 0.0000
vt 0.8840 0.8655 0.0000
vt 0.8023 0.5399 0.0000
vt 0.9069 0.5399 0.0000
vt 0.9069 0.6216 0.0000
vt 0.8023 0.6216 0.0000
vt 0.7996 0.7554 0.0000
vt 0.7996 0.8655 0.0000
vt 0.7179 0.8655 0.0000
vt 0.7179 0.7554 0.0000
vt 0.9569 0.9881 0.0000
vt 0.9569 0.9007 0.0000
vt 0.9908 0.9677 0.0000
vt 0.9908 0.9794 0.0000
vt 0.7929 0.2681 0.0000
vt 0.9083 0.2681 0.0000
vt 0.8744 0.3352 0.0000
vt 0.8268 0.3352 0.0000
vt 0.9205 0.2540 0.0000
vt 0.9205 0.3415 0.0000
vt 0.8866 0.3328 0.0000
vt 0.8866 0.3211 0.0000
vt 0.5204 0.5305 0.0000
vt 0.5204 0.6459 0.0000
vt 0.5117 0.6120 0.0000
vt 0.5117 0.5644 0.0000
vt 0.9916 0.1416 0.0000
vt 0.9916 0.1533 0.0000
vt 0.9897 0.1533 0.0000
vt 0.9897 0.1416 0.0000
vt 0.4562 0.7901 0.0000
vt 0.4087 0.7901 0.0000
vt 0.4087 0.7882 0.0000
vt 0.4562 0.7882 0.0000
vt 0.9597 0.7952 0.0000
vt 0.9597 0.7835 0.0000
vt 0.9616 0.7835 0.0000
vt 0.9616 0.7952 0.0000
vt 0.9288 0.3203 0.0000
vt 0.9288 0.2728 0.0000
vt 0.9306 0.2728 0.0000
vt 0.9306 0.3203 0.0000
vt 0.4979 0.8023 0.0000
vt 0.4979 0.8897 0.0000
vt 0.9916 0.2203 0.0000
vt 0.9944 0.1533 0.0000
vt 0.9944 0.2203 0.0000
vt 0.9944 0.1416 0.0000
vt 0.2681 0.9897 0.0000
vt 0.3031 0.9897 0.0000
vt 0.3031 0.9925 0.0000
vt 0.2681 0.9925 0.0000
vt 0.5026 0.9007 0.0000
vt 0.5026 0.9881 0.0000
vt 0.3149 0.9897 0.0000
vt 0.3500 0.9897 0.0000
vt 0.3500 0.9925 0.0000
vt 0.3149 0.9925 0.0000
vt 0.9569 0.7952 0.0000
vt 0.9569 0.7835 0.0000
vt 0.9597 0.8623 0.0000
vt 0.9569 0.8623 0.0000
# 536 texture coords

o drawer_003
g drawer_003
usemtl wire_115115115
s off
f 1/1/1 2/2/1 3/3/1 4/4/2 
f 5/5/3 6/6/3 7/7/3 8/8/3 
f 1/9/4 4/10/4 6/11/4 5/12/5 
f 4/13/6 3/14/6 7/15/6 6/16/6 
f 9/17/7 10/18/7 11/19/7 12/20/7 
f 13/21/8 14/22/8 15/23/8 16/24/9 
f 3/25/10 2/26/10 17/27/10 18/28/10 
f 2/26/11 8/29/11 19/30/11 17/27/11 
f 8/29/11 7/31/11 20/32/11 19/30/11 
f 7/31/10 3/25/10 18/28/10 20/32/11 
f 18/33/12 17/34/12 10/35/12 9/36/13 
f 17/37/14 19/38/14 11/39/14 10/40/14 
f 19/41/15 20/42/15 12/43/15 11/44/16 
f 20/45/8 18/46/8 9/47/8 12/48/17 
f 21/49/17 22/50/17 23/51/17 24/52/17 
f 1/53/17 5/54/17 25/55/17 26/56/8 
f 27/57/8 28/58/8 29/59/8 30/60/9 
f 8/61/9 2/62/9 31/63/9 32/64/8 
f 31/65/3 26/66/3 14/67/3 13/68/3 
f 26/69/11 25/70/11 15/71/11 14/72/11 
f 25/73/16 32/74/16 16/75/16 15/76/16 
f 32/77/5 31/78/5 13/79/5 16/80/5 
f 2/2/15 1/1/15 22/81/15 21/82/15 
f 1/83/18 26/66/18 23/84/18 22/85/19 
f 26/66/3 31/65/3 24/86/3 23/84/3 
f 31/87/20 2/88/20 21/89/20 24/90/21 
f 5/5/3 8/8/3 28/91/3 27/92/3 
f 8/93/22 32/94/22 29/95/22 28/96/22 
f 32/74/16 25/73/16 30/97/16 29/98/16 
f 25/73/23 5/99/23 27/100/23 30/97/23 
f 33/101/1 34/102/1 35/103/1 36/104/2 
f 37/105/3 38/106/3 39/107/3 40/108/3 
f 33/109/5 36/110/5 38/111/5 37/112/24 
f 36/113/6 35/114/6 39/115/6 38/116/6 
f 41/117/7 42/118/25 43/119/7 44/120/7 
f 45/121/9 46/122/9 47/123/9 48/124/9 
f 35/125/11 34/126/11 49/127/11 50/128/11 
f 34/126/11 40/129/11 51/130/11 49/127/11 
f 40/129/11 39/131/11 52/132/11 51/130/11 
f 39/131/11 35/125/11 50/128/11 52/132/11 
f 50/133/12 49/134/12 42/135/12 41/136/13 
f 49/137/14 51/138/14 43/139/14 42/140/26 
f 51/141/15 52/142/15 44/143/15 43/144/16 
f 52/145/8 50/146/8 41/147/8 44/148/17 
f 53/149/17 54/150/17 55/151/17 56/152/27 
f 33/153/8 37/154/8 57/155/8 58/156/17 
f 59/157/9 60/158/9 61/159/9 62/160/9 
f 40/161/9 34/162/9 63/163/9 64/164/8 
f 63/165/3 58/166/3 46/167/3 45/168/3 
f 58/169/11 57/170/11 47/171/11 46/172/11 
f 57/173/16 64/174/16 48/175/16 47/176/16 
f 64/177/24 63/178/24 45/179/24 48/180/24 
f 34/102/15 33/101/15 54/181/15 53/182/15 
f 33/183/28 58/166/28 55/184/28 54/185/29 
f 58/166/3 63/165/3 56/186/3 55/184/3 
f 63/187/20 34/188/20 53/189/20 56/190/21 
f 37/105/3 40/108/3 60/191/3 59/192/3 
f 40/193/22 64/194/22 61/195/22 60/196/22 
f 64/174/16 57/173/16 62/197/16 61/198/16 
f 57/173/30 37/199/30 59/200/30 62/197/30 
f 65/201/24 66/202/24 67/203/24 68/204/24 
f 69/205/31 70/206/31 71/207/32 72/208/32 
f 73/209/9 74/210/9 75/211/9 76/212/9 
f 67/213/33 77/214/34 78/215/35 68/216/33 
f 79/217/14 80/218/14 77/219/14 67/220/14 66/221/14 81/222/14 71/223/14 70/224/14 
f 65/225/36 82/226/37 81/227/37 66/228/36 
f 65/229/9 68/230/9 83/231/9 84/232/9 
f 78/233/9 85/234/9 86/235/9 83/231/9 68/230/9 
f 72/236/9 87/237/9 86/235/9 85/234/9 88/238/9 69/239/9 
f 82/240/9 65/229/9 84/232/9 87/237/9 72/236/9 
f 84/241/11 83/242/11 74/243/11 73/244/11 
f 83/245/15 86/246/15 75/247/15 74/248/16 
f 86/249/24 87/250/24 76/251/24 75/252/24 
f 87/253/13 84/254/13 73/255/13 76/256/13 
f 89/257/16 90/258/16 91/259/16 92/260/16 
f 93/261/3 94/262/3 95/263/3 96/264/3 
f 89/265/24 92/266/24 94/267/24 93/268/24 
f 92/269/14 91/270/14 95/271/14 94/272/14 
f 91/273/11 90/274/11 96/275/11 95/276/11 
f 90/277/9 89/278/9 93/279/9 96/280/9 
f 97/281/16 98/282/16 99/283/16 100/284/16 
f 101/285/3 102/286/3 103/287/3 104/288/3 
f 97/289/24 100/290/24 102/291/24 101/292/24 
f 100/293/14 99/294/14 103/295/14 102/296/14 
f 99/297/11 98/298/11 104/299/11 103/300/11 
f 98/301/9 97/302/9 101/303/9 104/304/9 
f 105/305/16 106/306/16 107/307/16 108/308/16 
f 109/309/13 110/310/13 111/311/13 112/312/13 
f 105/313/24 108/314/24 110/315/24 109/316/24 
f 108/317/14 107/318/14 111/319/14 110/320/14 
f 107/321/11 106/322/11 112/323/11 111/324/11 
f 106/325/9 105/326/9 109/327/9 112/328/9 
f 80/329/38 85/330/38 78/215/35 77/214/34 
f 85/331/39 80/332/39 79/333/40 88/334/41 
f 88/334/41 79/333/40 70/206/31 69/205/31 
f 72/208/42 71/207/42 81/335/37 82/336/37 
f 113/337/2 114/338/16 115/339/2 116/340/2 
f 117/341/3 118/342/3 119/343/3 120/344/3 
f 113/345/24 116/346/24 118/347/24 117/348/24 
f 116/349/6 115/350/14 119/351/6 118/352/6 
f 121/353/11 122/354/11 123/355/11 124/356/11 
f 125/357/9 126/358/9 127/359/9 128/360/9 
f 115/361/11 114/362/11 129/363/11 130/364/11 
f 114/362/11 120/365/11 131/366/11 129/363/11 
f 120/365/11 119/367/11 132/368/11 131/366/11 
f 119/367/11 115/361/11 130/364/11 132/368/11 
f 130/369/12 129/370/12 122/371/12 121/372/12 
f 129/373/14 131/374/14 123/375/14 122/376/14 
f 131/377/16 132/378/16 124/379/16 123/380/16 
f 132/381/8 130/382/8 121/383/8 124/384/9 
f 133/385/17 134/386/17 135/387/17 136/388/9 
f 113/389/8 117/390/8 137/391/8 138/392/8 
f 139/393/9 140/394/9 141/395/9 142/396/9 
f 120/397/9 114/398/9 143/399/9 144/400/9 
f 143/401/3 138/402/3 126/403/3 125/404/3 
f 138/405/11 137/406/11 127/407/11 126/408/11 
f 137/409/16 144/410/16 128/411/16 127/412/16 
f 144/413/24 143/414/24 125/415/24 128/416/24 
f 114/338/16 113/337/16 134/417/16 133/418/16 
f 113/419/43 138/402/43 135/420/43 134/421/43 
f 138/402/3 143/401/3 136/422/3 135/420/3 
f 143/423/20 114/424/20 133/425/20 136/426/21 
f 117/341/3 120/344/3 140/427/3 139/428/3 
f 120/429/44 144/430/44 141/431/44 140/432/22 
f 144/410/16 137/409/16 142/433/16 141/434/2 
f 137/409/45 117/435/45 139/436/45 142/433/45 
f 145/437/1 146/438/1 147/439/1 148/440/1 
f 149/441/3 150/442/3 151/443/3 152/444/3 
f 145/445/4 148/446/4 150/447/4 149/448/5 
f 148/449/6 147/450/6 151/451/6 150/452/6 
f 153/453/7 154/454/7 155/455/7 156/456/11 
f 157/457/9 158/458/9 159/459/9 160/460/9 
f 147/461/11 146/462/11 161/463/11 162/464/11 
f 146/462/11 152/465/11 163/466/11 161/463/11 
f 152/465/11 151/467/11 164/468/11 163/466/11 
f 151/467/11 147/461/11 162/464/11 164/468/11 
f 162/469/3 161/470/3 154/471/3 153/472/13 
f 161/473/14 163/474/14 155/475/14 154/476/14 
f 163/477/16 164/478/16 156/479/16 155/480/16 
f 164/481/8 162/482/8 153/483/8 156/484/8 
f 165/485/17 166/486/17 167/487/17 168/488/17 
f 145/489/9 149/490/9 169/491/9 170/492/8 
f 171/493/9 172/494/9 173/495/9 174/496/9 
f 152/497/9 146/498/9 175/499/9 176/500/8 
f 175/501/3 170/502/3 158/503/3 157/504/3 
f 170/505/11 169/506/11 159/507/11 158/508/11 
f 169/509/16 176/510/16 160/511/16 159/512/16 
f 176/513/24 175/514/24 157/515/24 160/516/24 
f 146/438/15 145/437/15 166/517/15 165/518/15 
f 145/519/46 170/502/46 167/520/46 166/521/47 
f 170/502/3 175/501/3 168/522/3 167/520/3 
f 175/523/21 146/524/21 165/525/21 168/526/21 
f 149/441/3 152/444/3 172/527/3 171/528/3 
f 152/529/22 176/530/22 173/531/22 172/532/22 
f 176/510/16 169/509/16 174/533/16 173/534/16 
f 169/509/48 149/535/48 171/536/48 174/533/48 
# 156 polygons

